src/wave/memory.vcd
$date
	Tue Feb 11 11:50:49 2025
$end
$version
	Icarus Verilog
$end
$timescale
	1ps
$end
$scope module memory_tb $end
$var wire 1 ! D_bubble $end
$var wire 1 " D_stall $end
$var wire 1 # E_bubble $end
$var wire 1 $ E_stall $end
$var wire 1 % F_bubble $end
$var wire 1 & F_stall $end
$var wire 1 ' M_bubble $end
$var wire 1 ( M_stall $end
$var wire 1 ) W_bubble $end
$var wire 1 * W_stall $end
$var wire 1 + e_rst $end
$var wire 4 , f_icode [3:0] $end
$var wire 64 - m_valM [63:0] $end
$var wire 3 . m_stat [2:0] $end
$var wire 64 / f_valP [63:0] $end
$var wire 64 0 f_valC [63:0] $end
$var wire 3 1 f_stat [2:0] $end
$var wire 4 2 f_rB [3:0] $end
$var wire 4 3 f_rA [3:0] $end
$var wire 64 4 f_predPC [63:0] $end
$var wire 64 5 f_pc [63:0] $end
$var wire 4 6 f_ifun [3:0] $end
$var wire 64 7 e_valE [63:0] $end
$var wire 4 8 e_dstE [3:0] $end
$var wire 1 9 e_Cnd $end
$var wire 64 : d_valB [63:0] $end
$var wire 64 ; d_valA [63:0] $end
$var wire 4 < d_srcB [3:0] $end
$var wire 4 = d_srcA [3:0] $end
$var wire 4 > d_dstM [3:0] $end
$var wire 4 ? d_dstE [3:0] $end
$var wire 64 @ W_valM [63:0] $end
$var wire 64 A W_valE [63:0] $end
$var wire 3 B W_stat [2:0] $end
$var wire 64 C W_pc [63:0] $end
$var wire 4 D W_icode [3:0] $end
$var wire 4 E W_dstM [3:0] $end
$var wire 4 F W_dstE [3:0] $end
$var wire 64 G M_valE [63:0] $end
$var wire 64 H M_valA [63:0] $end
$var wire 3 I M_stat [2:0] $end
$var wire 64 J M_pc [63:0] $end
$var wire 4 K M_ifun [3:0] $end
$var wire 4 L M_icode [3:0] $end
$var wire 4 M M_dstM [3:0] $end
$var wire 4 N M_dstE [3:0] $end
$var wire 1 O M_Cnd $end
$var wire 64 P F_predPC [63:0] $end
$var wire 64 Q E_valC [63:0] $end
$var wire 64 R E_valB [63:0] $end
$var wire 64 S E_valA [63:0] $end
$var wire 3 T E_stat [2:0] $end
$var wire 4 U E_srcB [3:0] $end
$var wire 4 V E_srcA [3:0] $end
$var wire 64 W E_pc [63:0] $end
$var wire 4 X E_ifun [3:0] $end
$var wire 4 Y E_icode [3:0] $end
$var wire 4 Z E_dstM [3:0] $end
$var wire 4 [ E_dstE [3:0] $end
$var wire 64 \ D_valP [63:0] $end
$var wire 64 ] D_valC [63:0] $end
$var wire 3 ^ D_stat [2:0] $end
$var wire 4 _ D_rB [3:0] $end
$var wire 4 ` D_rA [3:0] $end
$var wire 64 a D_pc [63:0] $end
$var wire 4 b D_ifun [3:0] $end
$var wire 4 c D_icode [3:0] $end
$var reg 1 d clk $end
$var reg 1 e rst_n $end
$scope module Dreg $end
$var wire 1 ! D_bubble_i $end
$var wire 1 " D_stall_i $end
$var wire 1 d clk_i $end
$var wire 4 f f_icode_i [3:0] $end
$var wire 64 g f_valP_i [63:0] $end
$var wire 64 h f_valC_i [63:0] $end
$var wire 3 i f_stat_i [2:0] $end
$var wire 4 j f_rB_i [3:0] $end
$var wire 4 k f_rA_i [3:0] $end
$var wire 64 l f_pc_i [63:0] $end
$var wire 4 m f_ifun_i [3:0] $end
$var reg 4 n D_icode_o [3:0] $end
$var reg 4 o D_ifun_o [3:0] $end
$var reg 64 p D_pc_o [63:0] $end
$var reg 4 q D_rA_o [3:0] $end
$var reg 4 r D_rB_o [3:0] $end
$var reg 3 s D_stat_o [2:0] $end
$var reg 64 t D_valC_o [63:0] $end
$var reg 64 u D_valP_o [63:0] $end
$upscope $end
$scope module Ereg $end
$var wire 1 # E_bubble_i $end
$var wire 1 $ E_stall_i $end
$var wire 1 d clk_i $end
$var wire 4 v d_icode_i [3:0] $end
$var wire 4 w d_ifun_i [3:0] $end
$var wire 64 x d_pc_i [63:0] $end
$var wire 3 y d_stat_i [2:0] $end
$var wire 64 z d_valC_i [63:0] $end
$var wire 64 { d_valB_i [63:0] $end
$var wire 64 | d_valA_i [63:0] $end
$var wire 4 } d_srcB_i [3:0] $end
$var wire 4 ~ d_srcA_i [3:0] $end
$var wire 4 !" d_dstM_i [3:0] $end
$var wire 4 "" d_dstE_i [3:0] $end
$var reg 4 #" E_dstE_o [3:0] $end
$var reg 4 $" E_dstM_o [3:0] $end
$var reg 4 %" E_icode_o [3:0] $end
$var reg 4 &" E_ifun_o [3:0] $end
$var reg 64 '" E_pc_o [63:0] $end
$var reg 4 (" E_srcA_o [3:0] $end
$var reg 4 )" E_srcB_o [3:0] $end
$var reg 3 *" E_stat_o [2:0] $end
$var reg 64 +" E_valA_o [63:0] $end
$var reg 64 ," E_valB_o [63:0] $end
$var reg 64 -" E_valC_o [63:0] $end
$upscope $end
$scope module Freg $end
$var wire 1 % F_bubble_i $end
$var wire 64 ." F_predPC_o [63:0] $end
$var wire 1 & F_stall_i $end
$var wire 1 d clk_i $end
$var wire 1 e rst_i $end
$var wire 64 /" f_predPC_i [63:0] $end
$var reg 64 0" predPC [63:0] $end
$upscope $end
$scope module Mreg $end
$var wire 1 ' M_bubble_i $end
$var wire 1 ( M_stall_i $end
$var wire 1 d clk_i $end
$var wire 4 1" e_dstM_i [3:0] $end
$var wire 4 2" e_icode_i [3:0] $end
$var wire 4 3" e_ifun_i [3:0] $end
$var wire 64 4" e_pc_i [63:0] $end
$var wire 3 5" e_stat_i [2:0] $end
$var wire 64 6" e_valA_i [63:0] $end
$var wire 64 7" e_valE_i [63:0] $end
$var wire 4 8" e_dstE_i [3:0] $end
$var wire 1 9 e_Cnd_i $end
$var reg 1 O M_Cnd_o $end
$var reg 4 9" M_dstE_o [3:0] $end
$var reg 4 :" M_dstM_o [3:0] $end
$var reg 4 ;" M_icode_o [3:0] $end
$var reg 4 <" M_ifun_o [3:0] $end
$var reg 64 =" M_pc_o [63:0] $end
$var reg 3 >" M_stat_o [2:0] $end
$var reg 64 ?" M_valA_o [63:0] $end
$var reg 64 @" M_valE_o [63:0] $end
$upscope $end
$scope module Wreg $end
$var wire 4 A" M_dstE_i [3:0] $end
$var wire 4 B" M_dstM_i [3:0] $end
$var wire 64 C" M_valE_i [63:0] $end
$var wire 1 ) W_bubble_i $end
$var wire 1 * W_stall_i $end
$var wire 1 d clk_i $end
$var wire 4 D" m_icode_i [3:0] $end
$var wire 64 E" m_pc_i [63:0] $end
$var wire 64 F" m_valM_i [63:0] $end
$var wire 3 G" m_stat_i [2:0] $end
$var reg 4 H" W_dstE_o [3:0] $end
$var reg 4 I" W_dstM_o [3:0] $end
$var reg 4 J" W_icode_o [3:0] $end
$var reg 64 K" W_pc_o [63:0] $end
$var reg 3 L" W_stat_o [2:0] $end
$var reg 64 M" W_valE_o [63:0] $end
$var reg 64 N" W_valM_o [63:0] $end
$upscope $end
$scope module decode_stage $end
$var wire 4 O" D_icode_i [3:0] $end
$var wire 4 P" D_rA_i [3:0] $end
$var wire 4 Q" D_rB_i [3:0] $end
$var wire 64 R" D_valP_i [63:0] $end
$var wire 4 S" M_dstE_i [3:0] $end
$var wire 4 T" M_dstM_i [3:0] $end
$var wire 64 U" M_valE_i [63:0] $end
$var wire 4 V" W_dstE_i [3:0] $end
$var wire 4 W" W_dstM_i [3:0] $end
$var wire 64 X" W_valE_i [63:0] $end
$var wire 64 Y" W_valM_i [63:0] $end
$var wire 1 d clk_i $end
$var wire 64 Z" d_valA_o [63:0] $end
$var wire 64 [" d_valB_o [63:0] $end
$var wire 64 \" m_valM_i [63:0] $end
$var wire 64 ]" e_valE_i [63:0] $end
$var wire 4 ^" e_dstE_i [3:0] $end
$var wire 4 _" d_srcB_o [3:0] $end
$var wire 4 `" d_srcA_o [3:0] $end
$var wire 64 a" d_rvalB [63:0] $end
$var wire 64 b" d_rvalA [63:0] $end
$var wire 4 c" d_dstM_o [3:0] $end
$var wire 4 d" d_dstE_o [3:0] $end
$upscope $end
$scope module execute_stage $end
$var wire 4 e" E_dstE_i [3:0] $end
$var wire 3 f" W_stat_i [2:0] $end
$var wire 1 d clk_i $end
$var wire 1 9 e_Cnd_o $end
$var wire 4 g" icode_i [3:0] $end
$var wire 4 h" ifun_i [3:0] $end
$var wire 1 + rst_n_i $end
$var wire 1 i" set_cc $end
$var wire 64 j" valA_i [63:0] $end
$var wire 64 k" valB_i [63:0] $end
$var wire 64 l" valC_i [63:0] $end
$var wire 1 m" zf $end
$var wire 64 n" valE_o [63:0] $end
$var wire 1 o" sf $end
$var wire 1 p" of $end
$var wire 3 q" m_stat_i [2:0] $end
$var wire 4 r" dstE_o [3:0] $end
$var wire 4 s" alu_fun [3:0] $end
$var wire 64 t" aluB [63:0] $end
$var wire 64 u" aluA [63:0] $end
$var reg 3 v" cc [2:0] $end
$var reg 3 w" new_cc [2:0] $end
$upscope $end
$scope module fetch_stage $end
$var wire 4 x" icode_o [3:0] $end
$var wire 1 y" instr_valid $end
$var wire 1 z" need_regids $end
$var wire 1 {" need_valC $end
$var wire 64 |" valP_o [63:0] $end
$var wire 64 }" valC_o [63:0] $end
$var wire 3 ~" stat_o [2:0] $end
$var wire 4 !# rB_o [3:0] $end
$var wire 4 "# rA_o [3:0] $end
$var wire 64 ## predPC_o [63:0] $end
$var wire 80 $# instr [79:0] $end
$var wire 1 %# imem_error $end
$var wire 4 &# ifun_o [3:0] $end
$var wire 64 '# PC_i [63:0] $end
$scope module instr_mem $end
$var wire 80 (# rdata_o [79:0] $end
$var wire 64 )# raddr_i [63:0] $end
$var wire 1 %# imem_error_o $end
$upscope $end
$upscope $end
$scope module memory_access_stage $end
$var wire 4 *# M_icode_i [3:0] $end
$var wire 3 +# M_stat_i [2:0] $end
$var wire 64 ,# M_valA_i [63:0] $end
$var wire 64 -# M_valE_i [63:0] $end
$var wire 1 d clk_i $end
$var wire 64 .# m_valM_o [63:0] $end
$var wire 3 /# m_stat_o [2:0] $end
$var wire 1 0# dmem_error $end
$var reg 64 1# mem_addr [63:0] $end
$var reg 1 2# r_en $end
$var reg 1 3# w_en $end
$scope module memory_module $end
$var wire 64 4# addr_i [63:0] $end
$var wire 1 d clk_i $end
$var wire 1 2# r_en $end
$var wire 1 3# w_en $end
$var wire 64 5# wdata_i [63:0] $end
$var wire 64 6# rdata_o [63:0] $end
$var wire 1 0# dmem_error_o $end
$var integer 32 7# i [31:0] $end
$upscope $end
$upscope $end
$scope module select_stage $end
$var wire 64 8# F_predPC_i [63:0] $end
$var wire 1 O M_Cnd_i $end
$var wire 4 9# M_icode_i [3:0] $end
$var wire 64 :# M_valA_i [63:0] $end
$var wire 4 ;# W_icode_i [3:0] $end
$var wire 64 <# W_valM_i [63:0] $end
$var reg 64 =# f_pc_o [63:0] $end
$upscope $end
$upscope $end
$enddefinitions $end
#0
$dumpvars
bx =#
bx <#
bx ;#
bx :#
bx 9#
bx 8#
b10000000000 7#
bx 6#
bx 5#
bx 4#
x3#
x2#
bx 1#
x0#
bx /#
bx .#
bx -#
bx ,#
bx +#
bx *#
bx )#
bx (#
bx '#
bx &#
x%#
bx $#
bx ##
bx "#
bx !#
bx ~"
bx }"
bx |"
x{"
xz"
xy"
bx x"
bx w"
bx v"
bx u"
bx t"
bx s"
bx r"
bx q"
xp"
xo"
bx n"
xm"
bx l"
bx k"
bx j"
xi"
bx h"
bx g"
bx f"
bx e"
bx d"
bx c"
bx b"
bx a"
bx `"
bx _"
bx ^"
bx ]"
bx \"
bx ["
bx Z"
bx Y"
bx X"
bx W"
bx V"
bx U"
bx T"
bx S"
bx R"
bx Q"
bx P"
bx O"
bx N"
bx M"
bx L"
bx K"
bx J"
bx I"
bx H"
bx G"
bx F"
bx E"
bx D"
bx C"
bx B"
bx A"
bx @"
bx ?"
bx >"
bx ="
bx <"
bx ;"
bx :"
bx 9"
bx 8"
bx 7"
bx 6"
bx 5"
bx 4"
bx 3"
bx 2"
bx 1"
bx 0"
bx /"
bx ."
bx -"
bx ,"
bx +"
bx *"
bx )"
bx ("
bx '"
bx &"
bx %"
bx $"
bx #"
bx ""
bx !"
bx ~
bx }
bx |
bx {
bx z
bx y
bx x
bx w
bx v
bx u
bx t
bx s
bx r
bx q
bx p
bx o
bx n
bx m
bx l
bx k
bx j
bx i
bx h
bx g
bx f
xe
0d
bx c
bx b
bx a
bx `
bx _
bx ^
bx ]
bx \
bx [
bx Z
bx Y
bx X
bx W
bx V
bx U
bx T
bx S
bx R
bx Q
bx P
xO
bx N
bx M
bx L
bx K
bx J
bx I
bx H
bx G
bx F
bx E
bx D
bx C
bx B
bx A
bx @
bx ?
bx >
bx =
bx <
bx ;
bx :
x9
bx 8
bx 7
bx 6
bx 5
bx 4
bx 3
bx 2
bx 1
bx 0
bx /
bx .
bx -
bx ,
x+
0*
0)
0(
0'
0&
0%
0$
0#
0"
0!
$end
#2000
0+
0e
#3000
b1010 4
b1010 /"
b1010 ##
b1010 /
b1010 g
b1010 |"
1z"
1{"
b100 1
b100 i
b100 ~"
b1001000110100010101100111100010011010101111001101111011110000 0
b1001000110100010101100111100010011010101111001101111011110000 h
b1001000110100010101100111100010011010101111001101111011110000 }"
b1 2
b1 j
b1 !#
b1111 3
b1111 k
b1111 "#
0y"
b0 6
b0 m
b0 &#
b11 ,
b11 f
b11 x"
b10010001101000101011001111000100110101011110011011110111100001111000100110000 $#
b10010001101000101011001111000100110101011110011011110111100001111000100110000 (#
0%#
b0 5
b0 l
b0 '#
b0 )#
b0 =#
0m"
0o"
0p"
b0 P
b0 ."
b0 8#
b0 0"
b0 v"
b0 w"
1d
#4000
1+
1e
#5000
0d
#10000
b1 :
b1 {
b1 ["
b1 a"
b1 <
b1 }
b1 _"
b10000 0
b10000 h
b10000 }"
b0 ;
b0 |
b0 Z"
b0 b"
b10 2
b10 j
b10 !#
b1 3
b1 k
b1 "#
b1 ?
b1 ""
b1 d"
b100 ,
b100 f
b100 x"
b100000001001001000000 $#
b100000001001001000000 (#
b10100 4
b10100 /"
b10100 ##
b1111 =
b1111 ~
b1111 `"
b1111 >
b1111 !"
b1111 c"
b10100 /
b10100 g
b10100 |"
b1010 5
b1010 l
b1010 '#
b1010 )#
b1010 =#
b1010 \
b1010 u
b1010 R"
b1001000110100010101100111100010011010101111001101111011110000 ]
b1001000110100010101100111100010011010101111001101111011110000 t
b1001000110100010101100111100010011010101111001101111011110000 z
b1 _
b1 r
b1 Q"
b1111 `
b1111 q
b1111 P"
b0 b
b0 o
b0 w
b11 c
b11 n
b11 v
b11 O"
b0 a
b0 p
b0 x
b100 ^
b100 s
b100 y
b1010 P
b1010 ."
b1010 8#
b1010 0"
1d
#15000
0d
#20000
b1001000110100010101100111100010011010101111001101111011110000 7
b1001000110100010101100111100010011010101111001101111011110000 7"
b1001000110100010101100111100010011010101111001101111011110000 ]"
b1001000110100010101100111100010011010101111001101111011110000 n"
b1 ;
b1 |
b1 Z"
b1 b"
b100000 0
b100000 h
b100000 }"
b1 =
b1 ~
b1 `"
b101 2
b101 j
b101 !#
b10 3
b10 k
b10 "#
b101 ,
b101 f
b101 x"
b1000000010010101010000 $#
b1000000010010101010000 (#
b11110 4
b11110 /"
b11110 ##
b10 :
b10 {
b10 ["
b10 a"
b11110 /
b11110 g
b11110 |"
b10100 5
b10100 l
b10100 '#
b10100 )#
b10100 =#
b10 <
b10 }
b10 _"
b1111 ?
b1111 ""
b1111 d"
b1 8
b1 8"
b1 ^"
b1 r"
b0 t"
b1001000110100010101100111100010011010101111001101111011110000 u"
b0 s"
0i"
09
b10100 P
b10100 ."
b10100 8#
b10100 0"
b10100 \
b10100 u
b10100 R"
b10000 ]
b10000 t
b10000 z
b10 _
b10 r
b10 Q"
b1 `
b1 q
b1 P"
b100 c
b100 n
b100 v
b100 O"
b1010 a
b1010 p
b1010 x
b1 U
b1 )"
b1111 V
b1111 ("
b1111 Z
b1111 $"
b1111 1"
b1 [
b1 #"
b1 e"
b1 R
b1 ,"
b1 k"
b0 S
b0 +"
b0 6"
b0 j"
b1001000110100010101100111100010011010101111001101111011110000 Q
b1001000110100010101100111100010011010101111001101111011110000 -"
b1001000110100010101100111100010011010101111001101111011110000 l"
b0 X
b0 &"
b0 3"
b0 h"
b11 Y
b11 %"
b11 2"
b11 g"
b0 W
b0 '"
b0 4"
b100 T
b100 *"
b100 5"
1d
#25000
0d
#30000
b10 t"
0{"
b10010 7
b10010 7"
b10010 ]"
b10010 n"
b0 0
b0 h
b0 }"
b11 3
b11 k
b11 "#
b110 ,
b110 f
b110 x"
00#
b0 -
b0 F"
b0 \"
b0 .#
b0 6#
b100 .
b100 G"
b100 q"
b100 /#
b10000 u"
b101 :
b101 {
b101 ["
b101 a"
b0 ;
b0 |
b0 Z"
b0 b"
b10 >
b10 !"
b10 c"
b110000011100000011010101100000100111111011000010001111101000000011010101100000 $#
b110000011100000011010101100000100111111011000010001111101000000011010101100000 (#
b100000 4
b100000 /"
b100000 ##
b0 1#
b0 4#
03#
02#
b1111 8
b1111 8"
b1111 ^"
b1111 r"
b101 <
b101 }
b101 _"
b1111 =
b1111 ~
b1111 `"
b100000 /
b100000 g
b100000 |"
b11110 5
b11110 l
b11110 '#
b11110 )#
b11110 =#
b1111 M
b1111 :"
b1111 B"
b1111 T"
b1 N
b1 9"
b1 A"
b1 S"
b0 H
b0 ?"
b0 ,#
b0 5#
b0 :#
b1001000110100010101100111100010011010101111001101111011110000 G
b1001000110100010101100111100010011010101111001101111011110000 @"
b1001000110100010101100111100010011010101111001101111011110000 C"
b1001000110100010101100111100010011010101111001101111011110000 U"
b1001000110100010101100111100010011010101111001101111011110000 -#
0O
b0 K
b0 <"
b11 L
b11 ;"
b11 D"
b11 *#
b11 9#
b0 J
b0 ="
b0 E"
b100 I
b100 >"
b100 +#
b10 U
b10 )"
b1 V
b1 ("
b1111 [
b1111 #"
b1111 e"
b10 R
b10 ,"
b10 k"
b1 S
b1 +"
b1 6"
b1 j"
b10000 Q
b10000 -"
b10000 l"
b100 Y
b100 %"
b100 2"
b100 g"
b1010 W
b1010 '"
b1010 4"
b11110 \
b11110 u
b11110 R"
b100000 ]
b100000 t
b100000 z
b101 _
b101 r
b101 Q"
b10 `
b10 q
b10 P"
b101 c
b101 n
b101 v
b101 O"
b10100 a
b10100 p
b10100 x
b11110 P
b11110 ."
b11110 8#
b11110 0"
1d
#35000
0d
#40000
b11 ;
b11 |
b11 Z"
b11 b"
b11 =
b11 ~
b11 `"
b101 :
b101 {
b101 ["
b101 a"
b100101 7
b100101 7"
b100101 ]"
b100101 n"
b1111 2
b1111 j
b1111 !#
b1000 3
b1000 k
b1000 "#
b101 <
b101 }
b101 _"
b1010 ,
b1010 f
b1010 x"
b101 ?
b101 ""
b101 d"
b100000 u"
b11000001110000001101010110000010011111101100001000111110100000 $#
b11000001110000001101010110000010011111101100001000111110100000 (#
b100010 4
b100010 /"
b100010 ##
b1111 >
b1111 !"
b1111 c"
b101 t"
b10010 1#
b10010 4#
13#
b100010 /
b100010 g
b100010 |"
b100000 5
b100000 l
b100000 '#
b100000 )#
b100000 =#
b100000 P
b100000 ."
b100000 8#
b100000 0"
b100000 \
b100000 u
b100000 R"
b0 ]
b0 t
b0 z
b11 `
b11 q
b11 P"
b110 c
b110 n
b110 v
b110 O"
b11110 a
b11110 p
b11110 x
b101 U
b101 )"
b1111 V
b1111 ("
b10 Z
b10 $"
b10 1"
b101 R
b101 ,"
b101 k"
b0 S
b0 +"
b0 6"
b0 j"
b100000 Q
b100000 -"
b100000 l"
b101 Y
b101 %"
b101 2"
b101 g"
b10100 W
b10100 '"
b10100 4"
b1111 N
b1111 9"
b1111 A"
b1111 S"
b1 H
b1 ?"
b1 ,#
b1 5#
b1 :#
b10010 G
b10010 @"
b10010 C"
b10010 U"
b10010 -#
b100 L
b100 ;"
b100 D"
b100 *#
b100 9#
b1010 J
b1010 ="
b1010 E"
b1111 E
b1111 I"
b1111 W"
b1 F
b1 H"
b1 V"
b0 @
b0 N"
b0 Y"
b0 <#
b1001000110100010101100111100010011010101111001101111011110000 A
b1001000110100010101100111100010011010101111001101111011110000 M"
b1001000110100010101100111100010011010101111001101111011110000 X"
b11 D
b11 J"
b11 ;#
b0 C
b0 K"
b100 B
b100 L"
b100 f"
1d
#45000
0d
#50000
b1000 7
b1000 7"
b1000 ]"
b1000 n"
b1001 3
b1001 k
b1001 "#
b111111101101110010111010100110000111011001010100001100100001 -
b111111101101110010111010100110000111011001010100001100100001 F"
b111111101101110010111010100110000111011001010100001100100001 \"
b111111101101110010111010100110000111011001010100001100100001 .#
b111111101101110010111010100110000111011001010100001100100001 6#
b1011 ,
b1011 f
b1011 x"
b11 u"
b10000000000 :
b10000000000 {
b10000000000 ["
b10000000000 a"
b100010001 ;
b100010001 |
b100010001 Z"
b100010001 b"
b1100000111000000110101011000001001111110110000 $#
b1100000111000000110101011000001001111110110000 (#
b100100 4
b100100 /"
b100100 ##
12#
b100101 1#
b100101 4#
03#
b101 8
b101 8"
b101 ^"
b101 r"
1i"
b100 <
b100 }
b100 _"
b100 ?
b100 ""
b100 d"
b1000 =
b1000 ~
b1000 `"
b100100 /
b100100 g
b100100 |"
b100010 5
b100010 l
b100010 '#
b100010 )#
b100010 =#
b1111 F
b1111 H"
b1111 V"
b10010 A
b10010 M"
b10010 X"
b100 D
b100 J"
b100 ;#
b1010 C
b1010 K"
b10 M
b10 :"
b10 B"
b10 T"
b0 H
b0 ?"
b0 ,#
b0 5#
b0 :#
b100101 G
b100101 @"
b100101 C"
b100101 U"
b100101 -#
b101 L
b101 ;"
b101 D"
b101 *#
b101 9#
b10100 J
b10100 ="
b10100 E"
b11 V
b11 ("
b1111 Z
b1111 $"
b1111 1"
b101 [
b101 #"
b101 e"
b11 S
b11 +"
b11 6"
b11 j"
b0 Q
b0 -"
b0 l"
b110 Y
b110 %"
b110 2"
b110 g"
b11110 W
b11110 '"
b11110 4"
b100010 \
b100010 u
b100010 R"
b1111 _
b1111 r
b1111 Q"
b1000 `
b1000 q
b1000 P"
b1010 c
b1010 n
b1010 v
b1010 O"
b100000 a
b100000 p
b100000 x
b100010 P
b100010 ."
b100010 8#
b100010 0"
1d
#55000
0d
#60000
b101 2
b101 j
b101 !#
b1111111000 7
b1111111000 7"
b1111111000 ]"
b1111111000 n"
b11 3
b11 k
b11 "#
1z"
b110 ,
b110 f
b110 x"
b10000000000 ;
b10000000000 |
b10000000000 Z"
b10000000000 b"
b1001 >
b1001 !"
b1001 c"
b0 -
b0 F"
b0 \"
b0 .#
b0 6#
b110000011100000011010101100000 $#
b110000011100000011010101100000 (#
b100110 4
b100110 /"
b100110 ##
b100 =
b100 ~
b100 `"
b100 8
b100 8"
b100 ^"
b100 r"
b10000000000 t"
b1111111111111111111111111111111111111111111111111111111111111000 u"
0i"
b0 1#
b0 4#
02#
b100110 /
b100110 g
b100110 |"
b100100 5
b100100 l
b100100 '#
b100100 )#
b100100 =#
b100100 P
b100100 ."
b100100 8#
b100100 0"
b100100 \
b100100 u
b100100 R"
b1001 `
b1001 q
b1001 P"
b1011 c
b1011 n
b1011 v
b1011 O"
b100010 a
b100010 p
b100010 x
b100 U
b100 )"
b1000 V
b1000 ("
b100 [
b100 #"
b100 e"
b10000000000 R
b10000000000 ,"
b10000000000 k"
b100010001 S
b100010001 +"
b100010001 6"
b100010001 j"
b1010 Y
b1010 %"
b1010 2"
b1010 g"
b100000 W
b100000 '"
b100000 4"
b1111 M
b1111 :"
b1111 B"
b1111 T"
b101 N
b101 9"
b101 A"
b101 S"
b11 H
b11 ?"
b11 ,#
b11 5#
b11 :#
b1000 G
b1000 @"
b1000 C"
b1000 U"
b1000 -#
b110 L
b110 ;"
b110 D"
b110 *#
b110 9#
b11110 J
b11110 ="
b11110 E"
b10 E
b10 I"
b10 W"
b111111101101110010111010100110000111011001010100001100100001 @
b111111101101110010111010100110000111011001010100001100100001 N"
b111111101101110010111010100110000111011001010100001100100001 Y"
b111111101101110010111010100110000111011001010100001100100001 <#
b100101 A
b100101 M"
b100101 X"
b101 D
b101 J"
b101 ;#
b10100 C
b10100 K"
1d
#65000
0d
#70000
b10000001000 7
b10000001000 7"
b10000001000 ]"
b10000001000 n"
b1111 3
b1111 k
b1111 "#
0z"
b110000 0
b110000 h
b110000 }"
1{"
b1000 u"
b11 ;
b11 |
b11 Z"
b11 b"
b101 :
b101 {
b101 ["
b101 a"
b1111 2
b1111 j
b1111 !#
b11 =
b11 ~
b11 `"
b101 <
b101 }
b101 _"
b111 ,
b111 f
b111 x"
b101 ?
b101 ""
b101 d"
bx000000000000000000000000000000000000000000000000000000000011000001110000 $#
bx000000000000000000000000000000000000000000000000000000000011000001110000 (#
b110000 4
b110000 /"
b110000 ##
b1111111000 1#
b1111111000 4#
13#
b1111 >
b1111 !"
b1111 c"
b101111 /
b101111 g
b101111 |"
b100110 5
b100110 l
b100110 '#
b100110 )#
b100110 =#
b1111 E
b1111 I"
b1111 W"
b101 F
b101 H"
b101 V"
b0 @
b0 N"
b0 Y"
b0 <#
b1000 A
b1000 M"
b1000 X"
b110 D
b110 J"
b110 ;#
b11110 C
b11110 K"
b100 N
b100 9"
b100 A"
b100 S"
b100010001 H
b100010001 ?"
b100010001 ,#
b100010001 5#
b100010001 :#
b1111111000 G
b1111111000 @"
b1111111000 C"
b1111111000 U"
b1111111000 -#
b1010 L
b1010 ;"
b1010 D"
b1010 *#
b1010 9#
b100000 J
b100000 ="
b100000 E"
b100 V
b100 ("
b1001 Z
b1001 $"
b1001 1"
b10000000000 S
b10000000000 +"
b10000000000 6"
b10000000000 j"
b1011 Y
b1011 %"
b1011 2"
b1011 g"
b100010 W
b100010 '"
b100010 4"
b100110 \
b100110 u
b100110 R"
b101 _
b101 r
b101 Q"
b11 `
b11 q
b11 P"
b110 c
b110 n
b110 v
b110 O"
b100100 a
b100100 p
b100100 x
b100110 P
b100110 ."
b100110 8#
b100110 0"
1d
#75000
0d
#80000
b111010 4
b111010 /"
b111010 ##
b111010 0
b111010 h
b111010 }"
b1000 7
b1000 7"
b1000 ]"
b1000 n"
b1 .
b1 G"
b1 q"
b1 /#
bx -
bx F"
bx \"
bx .#
bx 6#
b1 6
b1 m
b1 &#
b0 ;
b0 |
b0 Z"
b0 b"
b11 u"
10#
b1110010000000000000000000000000000000000000000000000000000000000011101001110001 $#
b1110010000000000000000000000000000000000000000000000000000000000011101001110001 (#
b1111 <
b1111 }
b1111 _"
b1111 ?
b1111 ""
b1111 d"
b1111 =
b1111 ~
b1111 `"
b0 :
b0 {
b0 ["
b0 a"
b101 8
b101 8"
b101 ^"
b101 r"
b101 t"
1i"
12#
b10000000000 1#
b10000000000 4#
03#
b111001 /
b111001 g
b111001 |"
b110000 5
b110000 l
b110000 '#
b110000 )#
b110000 =#
b110000 P
b110000 ."
b110000 8#
b110000 0"
b101111 \
b101111 u
b101111 R"
b110000 ]
b110000 t
b110000 z
b1111 _
b1111 r
b1111 Q"
b1111 `
b1111 q
b1111 P"
b111 c
b111 n
b111 v
b111 O"
b100110 a
b100110 p
b100110 x
b101 U
b101 )"
b11 V
b11 ("
b1111 Z
b1111 $"
b1111 1"
b101 [
b101 #"
b101 e"
b101 R
b101 ,"
b101 k"
b11 S
b11 +"
b11 6"
b11 j"
b110 Y
b110 %"
b110 2"
b110 g"
b100100 W
b100100 '"
b100100 4"
b1001 M
b1001 :"
b1001 B"
b1001 T"
b10000000000 H
b10000000000 ?"
b10000000000 ,#
b10000000000 5#
b10000000000 :#
b10000001000 G
b10000001000 @"
b10000001000 C"
b10000001000 U"
b10000001000 -#
b1011 L
b1011 ;"
b1011 D"
b1011 *#
b1011 9#
b100010 J
b100010 ="
b100010 E"
b100 F
b100 H"
b100 V"
b1111111000 A
b1111111000 M"
b1111111000 X"
b1010 D
b1010 J"
b1010 ;#
b100000 C
b100000 K"
1d
#85000
0d
